{
  "tasks": [
    {
      "type": "shell",
      "label": "gcc.exe build active file",
      "command": "g++",
      "args": [
        "-g",
        "-fopenmp",
        "-o",
        "${fileBasenameNoExtension}.exe"
        "${fileBasenameNoExtension}.c"
      ],
      "options": {
        "cwd": "C:\\Users\\Rakieta\\Documents\\Programowanie\\temp"
      },
      "group": {
        "kind": "build",
        "isDefault": true
      }
    }
  ],
  "version": "2.0.0"
}